Jhanvi Kannan - EPPS 6323: Research Project
…
# Convert the document-term matrix to a matrix
dtm_matrix <- as.matrix(dtm)

# Perform LDA
word_lda <- LDA(dtm_matrix, k = 2, control = list(seed = 1234))

# View the summary of the LDA model
word_lda

A LDA_VEM topic model with 2 topics.

word_topics <- tidy(word_lda, matrix='beta')
word_topics

# A tibble: 2,288 × 3
   topic term          beta
   <int> <chr>        <dbl>
 1     1 i’m       0.0562  
 2     2 i’m       0.00152 
 3     1 depressed 0.00431 
 4     2 depressed 0.00588 
 5     1 16        0.00236 
 6     2 16        0.00188 
 7     1 22        0.000251
 8     2 22        0.000598
 9     1 spend     0.000628
10     2 spend     0.00192 
# ℹ 2,278 more rows
…
